…
    ## `summarise()` has grouped output by 'country'. You can override using the `.groups` argument.

``` r
single_country
```

    ## # A tibble: 42 x 5
    ## # Groups:   country [2]
    ##    country            year total_suicides      pop  ratio
    ##    <fct>             <dbl>          <int>    <int>  <dbl>
    ##  1 Republic of Korea  1995           1955 19302700 0.0101
    ##  2 Republic of Korea  1996           2540 21125900 0.0120
    ##  3 Republic of Korea  1997           3862 24956900 0.0155
    ##  4 Republic of Korea  1998           3192 19234500 0.0166
    ##  5 Republic of Korea  1999           2898 20494700 0.0141
    ##  6 Republic of Korea  2000           4395 26689565 0.0165
    ##  7 Republic of Korea  2001           4437 24594672 0.0180
    ##  8 Republic of Korea  2002           4241 22735787 0.0187
    ##  9 Republic of Korea  2003           6925 25107082 0.0276
    ## 10 Republic of Korea  2004           7507 26363344 0.0285
    ## # ... with 32 more rows
…
